{
	"info": {
		"_postman_id": "53fa4166-74f6-4f02-a99d-934cd94aac93",
		"name": "New Collection",
		"schema": "https://schema.getpostman.com/json/collection/v2.1.0/collection.json",
		"_exporter_id": "30631829"
	},
	"item": [
		{
			"name": "city",
			"event": [
				{
					"listen": "test",
					"script": {
						"exec": [
							"pm.test(\"Body contains\", () => {",
							"    pm.expect(pm.response.text()).to.include(\"Bordeaux\")",
							"})"
						],
						"type": "text/javascript",
						"packages": {}
					}
				}
			],
			"request": {
				"method": "GET",
				"header": [],
				"url": {
					"raw": "http://localhost:3000/city",
					"protocol": "http",
					"host": [
						"localhost"
					],
					"port": "3000",
					"path": [
						"city"
					]
				}
			},
			"response": []
		},
		{
			"name": "status",
			"event": [
				{
					"listen": "test",
					"script": {
						"exec": [
							"pm.test(\"Status code is 200\", () => {",
							"    pm.response.to.have.status(200)",
							"})"
						],
						"type": "text/javascript",
						"packages": {}
					}
				}
			],
			"request": {
				"method": "GET",
				"header": [],
				"url": {
					"raw": "http://localhost:3000/status",
					"protocol": "http",
					"host": [
						"localhost"
					],
					"port": "3000",
					"path": [
						"status"
					]
				}
			},
			"response": []
		},
		{
			"name": "404 error",
			"event": [
				{
					"listen": "test",
					"script": {
						"exec": [
							"pm.test(\"Status code is 404\", () => {",
							"    pm.response.to.have.status(404)",
							"})"
						],
						"type": "text/javascript",
						"packages": {}
					}
				}
			],
			"request": {
				"method": "GET",
				"header": [],
				"url": {
					"raw": "http://localhost:3000/qsdsqdsqd",
					"protocol": "http",
					"host": [
						"localhost"
					],
					"port": "3000",
					"path": [
						"qsdsqdsqd"
					]
				}
			},
			"response": []
		}
	]
}